Fluent genomics with plyranges and tximeta • fluentGenomics
…
coldata

## # A tibble: 24 x 5
##    names      id     line  condition  files                                     
##    <chr>      <chr>  <fct> <fct>      <chr>                                     
##  1 SAMEA1038… diku_A diku… naive      /usr/local/lib/R/host-site-library/macrop…
##  2 SAMEA1038… diku_B diku… IFNg       /usr/local/lib/R/host-site-library/macrop…
##  3 SAMEA1038… diku_C diku… SL1344     /usr/local/lib/R/host-site-library/macrop…
##  4 SAMEA1038… diku_D diku… IFNg_SL13… /usr/local/lib/R/host-site-library/macrop…
##  5 SAMEA1038… eiwy_A eiwy… naive      /usr/local/lib/R/host-site-library/macrop…
##  6 SAMEA1038… eiwy_B eiwy… IFNg       /usr/local/lib/R/host-site-library/macrop…
##  7 SAMEA1038… eiwy_C eiwy… SL1344     /usr/local/lib/R/host-site-library/macrop…
##  8 SAMEA1038… eiwy_D eiwy… IFNg_SL13… /usr/local/lib/R/host-site-library/macrop…
##  9 SAMEA1038… fikt_A fikt… naive      /usr/local/lib/R/host-site-library/macrop…
## 10 SAMEA1038… fikt_B fikt… IFNg       /usr/local/lib/R/host-site-library/macrop…
## # … with 14 more rows
…
